{
	"ImportPath": "bitbucket.org/tampajohn/slack-upvote",
	"GoVersion": "go1.2.2",
	"Deps": [
		{
			"ImportPath": "bitbucket.org/tampajohn/gadget-arm/errors",
			"Rev": "c8f8e6a1053b6f8c5d22b8a79e410934e3ee95d6"
		},
		{
			"ImportPath": "bitbucket.org/tampajohn/gadget-arm/session",
			"Rev": "c8f8e6a1053b6f8c5d22b8a79e410934e3ee95d6"
		},
		{
			"ImportPath": "github.com/codegangsta/negroni",
			"Comment": "v0.1-53-g0366a6e",
			"Rev": "0366a6e5c8c7d1f63c9e11d8b688aea387f08b96"
		},
		{
			"ImportPath": "gopkg.in/mgo.v2",
			"Rev": "e2e914857713db7497cca2bd7fc0b030fc9cb22d"
		}
	]
}
